<svg width="24" height="24" viewBox="0 0 24 24" fill="none" xmlns="http://www.w3.org/2000/svg">
<g id="Frame 21">
<path id="Vector 6" d="M6.5 2.5H17.5C17.7761 2.5 18 2.72386 18 3V19.5619C18 20.009 17.458 20.2313 17.144 19.913L13.268 15.9828C12.6948 15.4015 11.7619 15.3854 11.169 15.9466L6.84369 20.0399C6.52495 20.3416 6 20.1156 6 19.6768V3C6 2.72386 6.22386 2.5 6.5 2.5Z" stroke="#110C1F"/>
</g>
</svg>
